{
    "ObjectivesMaster": [
        {
            "Name": "Escape",
            "Title": "Through Hell & High Water...",
            "Description": "Escape the bunker!",
            "Completed": false
        },
        {
            "Name": "No Doors",
            "Title": "No Doors Can Hold Me!",
            "Description": "Find a way to open the blast door!",
            "Completed": false
        },
        {
            "Name": "Keycard",
            "Title": "The Keycard Conundrum",
            "Description": "Find the red keycard to get access to the Stairwell!",
            "Completed": false
        },
        {
            "Name": "Blast Door",
            "Title": "Open Wide!",
            "Description": "Open the blast door!",
            "Completed": false
        },
        {
            "Name": "Boss",
            "Title": "Outta my way!",
            "Description": "Take out the Final Boss, and use his lazer gun to take out the debris!",
            "Completed": false
        }
    ],
    "Player": {
        "RestorePos": {
            "x": 0.0,
            "y": -5.0,
            "z": -31.59999656677246
        },
        "RestoreRot": {
            "x": -0.7071068286895752,
            "y": 0.0,
            "z": 0.0
        },
        "Health": 100.0,
        "Shield": 0.0,
        "Armor": 0.0,
        "ArmorEffectiveness": 0.0,
        "Objectives": [],
        "Credits": 0,
        "Inventory": [
            {
                "Name": "Koreloth",
                "Description": "Truly masssive ordinance from King Kerbel himself; whoever that is...",
                "Icon": "Koreloth",
                "Path": "",
                "Value": 1000
            }
        ],
        "StartingWeapon": {
            "Name": "Borgas-12",
            "Description": "Despite the terrible name, this shotgun get's the job done.",
            "Icon": "Borgas_12",
            "Path": "",
            "Value": 400
        }
    }
}